%!PS-Adobe-2.0 EPSF-2.0
%%Title: amdPrec8192-5121024.eps
%%Creator: gnuplot 5.5 patchlevel 0
%%CreationDate: Mon Aug 10 19:30:14 2020
%%DocumentFonts: (atend)
%%BoundingBox: 50 50 410 302
%%EndComments
%%BeginProlog
/gnudict 256 dict def
gnudict begin
%
% The following true/false flags may be edited by hand if desired.
% The unit line width and grayscale image gamma correction may also be changed.
%
/Color true def
/Blacktext false def
/Solid false def
/Dashlength 1 def
/Landscape false def
/Level1 false def
/Level3 false def
/Rounded false def
/ClipToBoundingBox false def
/SuppressPDFMark false def
/TransparentPatterns false def
/gnulinewidth 5.000 def
/userlinewidth gnulinewidth def
/Gamma 1.0 def
/BackgroundColor {-1.000 -1.000 -1.000} def
%
/vshift -73 def
/dl1 {
  10.0 Dashlength userlinewidth gnulinewidth div mul mul mul
  Rounded { currentlinewidth 0.75 mul sub dup 0 le { pop 0.01 } if } if
} def
/dl2 {
  10.0 Dashlength userlinewidth gnulinewidth div mul mul mul
  Rounded { currentlinewidth 0.75 mul add } if
} def
/hpt_ 31.5 def
/vpt_ 31.5 def
/hpt hpt_ def
/vpt vpt_ def
/doclip {
  ClipToBoundingBox {
    newpath 50 50 moveto 410 50 lineto 410 302 lineto 50 302 lineto closepath
    clip
  } if
} def
%
% Gnuplot Prolog Version 5.2 (Dec 2017)
%
%/SuppressPDFMark true def
%
/M {moveto} bind def
/L {lineto} bind def
/R {rmoveto} bind def
/V {rlineto} bind def
/N {newpath moveto} bind def
/Z {closepath} bind def
/C {setrgbcolor} bind def
/f {rlineto fill} bind def
/g {setgray} bind def
/Gshow {show} def   % May be redefined later in the file to support UTF-8
/vpt2 vpt 2 mul def
/hpt2 hpt 2 mul def
/Lshow {currentpoint stroke M 0 vshift R 
	Blacktext {gsave 0 setgray textshow grestore} {textshow} ifelse} def
/Rshow {currentpoint stroke M dup stringwidth pop neg vshift R
	Blacktext {gsave 0 setgray textshow grestore} {textshow} ifelse} def
/Cshow {currentpoint stroke M dup stringwidth pop -2 div vshift R 
	Blacktext {gsave 0 setgray textshow grestore} {textshow} ifelse} def
/UP {dup vpt_ mul /vpt exch def hpt_ mul /hpt exch def
  /hpt2 hpt 2 mul def /vpt2 vpt 2 mul def} def
/DL {Color {setrgbcolor Solid {pop []} if 0 setdash}
 {pop pop pop 0 setgray Solid {pop []} if 0 setdash} ifelse} def
/BL {stroke userlinewidth 2 mul setlinewidth
	Rounded {1 setlinejoin 1 setlinecap} if} def
/AL {stroke userlinewidth 2 div setlinewidth
	Rounded {1 setlinejoin 1 setlinecap} if} def
/UL {dup gnulinewidth mul /userlinewidth exch def
	dup 1 lt {pop 1} if 10 mul /udl exch def} def
/PL {stroke userlinewidth setlinewidth
	Rounded {1 setlinejoin 1 setlinecap} if} def
3.8 setmiterlimit
% Classic Line colors (version 5.0)
/LCw {1 1 1} def
/LCb {0 0 0} def
/LCa {0 0 0} def
/LC0 {1 0 0} def
/LC1 {0 1 0} def
/LC2 {0 0 1} def
/LC3 {1 0 1} def
/LC4 {0 1 1} def
/LC5 {1 1 0} def
/LC6 {0 0 0} def
/LC7 {1 0.3 0} def
/LC8 {0.5 0.5 0.5} def
% Default dash patterns (version 5.0)
/LTB {BL [] LCb DL} def
/LTw {PL [] 1 setgray} def
/LTb {PL [] LCb DL} def
/LTa {AL [1 udl mul 2 udl mul] 0 setdash LCa setrgbcolor} def
/LT0 {PL [] LC0 DL} def
/LT1 {PL [2 dl1 3 dl2] LC1 DL} def
/LT2 {PL [1 dl1 1.5 dl2] LC2 DL} def
/LT3 {PL [6 dl1 2 dl2 1 dl1 2 dl2] LC3 DL} def
/LT4 {PL [1 dl1 2 dl2 6 dl1 2 dl2 1 dl1 2 dl2] LC4 DL} def
/LT5 {PL [4 dl1 2 dl2] LC5 DL} def
/LT6 {PL [1.5 dl1 1.5 dl2 1.5 dl1 1.5 dl2 1.5 dl1 6 dl2] LC6 DL} def
/LT7 {PL [3 dl1 3 dl2 1 dl1 3 dl2] LC7 DL} def
/LT8 {PL [2 dl1 2 dl2 2 dl1 6 dl2] LC8 DL} def
/SL {[] 0 setdash} def
/Pnt {stroke [] 0 setdash gsave 1 setlinecap M 0 0 V stroke grestore} def
/Dia {stroke [] 0 setdash 2 copy vpt add M
  hpt neg vpt neg V hpt vpt neg V
  hpt vpt V hpt neg vpt V closepath stroke
  Pnt} def
/Pls {stroke [] 0 setdash vpt sub M 0 vpt2 V
  currentpoint stroke M
  hpt neg vpt neg R hpt2 0 V stroke
 } def
/Box {stroke [] 0 setdash 2 copy exch hpt sub exch vpt add M
  0 vpt2 neg V hpt2 0 V 0 vpt2 V
  hpt2 neg 0 V closepath stroke
  Pnt} def
/Crs {stroke [] 0 setdash exch hpt sub exch vpt add M
  hpt2 vpt2 neg V currentpoint stroke M
  hpt2 neg 0 R hpt2 vpt2 V stroke} def
/TriU {stroke [] 0 setdash 2 copy vpt 1.12 mul add M
  hpt neg vpt -1.62 mul V
  hpt 2 mul 0 V
  hpt neg vpt 1.62 mul V closepath stroke
  Pnt} def
/Star {2 copy Pls Crs} def
/BoxF {stroke [] 0 setdash exch hpt sub exch vpt add M
  0 vpt2 neg V hpt2 0 V 0 vpt2 V
  hpt2 neg 0 V closepath fill} def
/TriUF {stroke [] 0 setdash vpt 1.12 mul add M
  hpt neg vpt -1.62 mul V
  hpt 2 mul 0 V
  hpt neg vpt 1.62 mul V closepath fill} def
/TriD {stroke [] 0 setdash 2 copy vpt 1.12 mul sub M
  hpt neg vpt 1.62 mul V
  hpt 2 mul 0 V
  hpt neg vpt -1.62 mul V closepath stroke
  Pnt} def
/TriDF {stroke [] 0 setdash vpt 1.12 mul sub M
  hpt neg vpt 1.62 mul V
  hpt 2 mul 0 V
  hpt neg vpt -1.62 mul V closepath fill} def
/DiaF {stroke [] 0 setdash vpt add M
  hpt neg vpt neg V hpt vpt neg V
  hpt vpt V hpt neg vpt V closepath fill} def
/Pent {stroke [] 0 setdash 2 copy gsave
  translate 0 hpt M 4 {72 rotate 0 hpt L} repeat
  closepath stroke grestore Pnt} def
/PentF {stroke [] 0 setdash gsave
  translate 0 hpt M 4 {72 rotate 0 hpt L} repeat
  closepath fill grestore} def
/Circle {stroke [] 0 setdash 2 copy
  hpt 0 360 arc stroke Pnt} def
/CircleF {stroke [] 0 setdash hpt 0 360 arc fill} def
/C0 {BL [] 0 setdash 2 copy moveto vpt 90 450 arc} bind def
/C1 {BL [] 0 setdash 2 copy moveto
	2 copy vpt 0 90 arc closepath fill
	vpt 0 360 arc closepath} bind def
/C2 {BL [] 0 setdash 2 copy moveto
	2 copy vpt 90 180 arc closepath fill
	vpt 0 360 arc closepath} bind def
/C3 {BL [] 0 setdash 2 copy moveto
	2 copy vpt 0 180 arc closepath fill
	vpt 0 360 arc closepath} bind def
/C4 {BL [] 0 setdash 2 copy moveto
	2 copy vpt 180 270 arc closepath fill
	vpt 0 360 arc closepath} bind def
/C5 {BL [] 0 setdash 2 copy moveto
	2 copy vpt 0 90 arc
	2 copy moveto
	2 copy vpt 180 270 arc closepath fill
	vpt 0 360 arc} bind def
/C6 {BL [] 0 setdash 2 copy moveto
	2 copy vpt 90 270 arc closepath fill
	vpt 0 360 arc closepath} bind def
/C7 {BL [] 0 setdash 2 copy moveto
	2 copy vpt 0 270 arc closepath fill
	vpt 0 360 arc closepath} bind def
/C8 {BL [] 0 setdash 2 copy moveto
	2 copy vpt 270 360 arc closepath fill
	vpt 0 360 arc closepath} bind def
/C9 {BL [] 0 setdash 2 copy moveto
	2 copy vpt 270 450 arc closepath fill
	vpt 0 360 arc closepath} bind def
/C10 {BL [] 0 setdash 2 copy 2 copy moveto vpt 270 360 arc closepath fill
	2 copy moveto
	2 copy vpt 90 180 arc closepath fill
	vpt 0 360 arc closepath} bind def
/C11 {BL [] 0 setdash 2 copy moveto
	2 copy vpt 0 180 arc closepath fill
	2 copy moveto
	2 copy vpt 270 360 arc closepath fill
	vpt 0 360 arc closepath} bind def
/C12 {BL [] 0 setdash 2 copy moveto
	2 copy vpt 180 360 arc closepath fill
	vpt 0 360 arc closepath} bind def
/C13 {BL [] 0 setdash 2 copy moveto
	2 copy vpt 0 90 arc closepath fill
	2 copy moveto
	2 copy vpt 180 360 arc closepath fill
	vpt 0 360 arc closepath} bind def
/C14 {BL [] 0 setdash 2 copy moveto
	2 copy vpt 90 360 arc closepath fill
	vpt 0 360 arc} bind def
/C15 {BL [] 0 setdash 2 copy vpt 0 360 arc closepath fill
	vpt 0 360 arc closepath} bind def
/Rec {newpath 4 2 roll moveto 1 index 0 rlineto 0 exch rlineto
	neg 0 rlineto closepath} bind def
/Square {dup Rec} bind def
/Bsquare {vpt sub exch vpt sub exch vpt2 Square} bind def
/S0 {BL [] 0 setdash 2 copy moveto 0 vpt rlineto BL Bsquare} bind def
/S1 {BL [] 0 setdash 2 copy vpt Square fill Bsquare} bind def
/S2 {BL [] 0 setdash 2 copy exch vpt sub exch vpt Square fill Bsquare} bind def
/S3 {BL [] 0 setdash 2 copy exch vpt sub exch vpt2 vpt Rec fill Bsquare} bind def
/S4 {BL [] 0 setdash 2 copy exch vpt sub exch vpt sub vpt Square fill Bsquare} bind def
/S5 {BL [] 0 setdash 2 copy 2 copy vpt Square fill
	exch vpt sub exch vpt sub vpt Square fill Bsquare} bind def
/S6 {BL [] 0 setdash 2 copy exch vpt sub exch vpt sub vpt vpt2 Rec fill Bsquare} bind def
/S7 {BL [] 0 setdash 2 copy exch vpt sub exch vpt sub vpt vpt2 Rec fill
	2 copy vpt Square fill Bsquare} bind def
/S8 {BL [] 0 setdash 2 copy vpt sub vpt Square fill Bsquare} bind def
/S9 {BL [] 0 setdash 2 copy vpt sub vpt vpt2 Rec fill Bsquare} bind def
/S10 {BL [] 0 setdash 2 copy vpt sub vpt Square fill 2 copy exch vpt sub exch vpt Square fill
	Bsquare} bind def
/S11 {BL [] 0 setdash 2 copy vpt sub vpt Square fill 2 copy exch vpt sub exch vpt2 vpt Rec fill
	Bsquare} bind def
/S12 {BL [] 0 setdash 2 copy exch vpt sub exch vpt sub vpt2 vpt Rec fill Bsquare} bind def
/S13 {BL [] 0 setdash 2 copy exch vpt sub exch vpt sub vpt2 vpt Rec fill
	2 copy vpt Square fill Bsquare} bind def
/S14 {BL [] 0 setdash 2 copy exch vpt sub exch vpt sub vpt2 vpt Rec fill
	2 copy exch vpt sub exch vpt Square fill Bsquare} bind def
/S15 {BL [] 0 setdash 2 copy Bsquare fill Bsquare} bind def
/D0 {gsave translate 45 rotate 0 0 S0 stroke grestore} bind def
/D1 {gsave translate 45 rotate 0 0 S1 stroke grestore} bind def
/D2 {gsave translate 45 rotate 0 0 S2 stroke grestore} bind def
/D3 {gsave translate 45 rotate 0 0 S3 stroke grestore} bind def
/D4 {gsave translate 45 rotate 0 0 S4 stroke grestore} bind def
/D5 {gsave translate 45 rotate 0 0 S5 stroke grestore} bind def
/D6 {gsave translate 45 rotate 0 0 S6 stroke grestore} bind def
/D7 {gsave translate 45 rotate 0 0 S7 stroke grestore} bind def
/D8 {gsave translate 45 rotate 0 0 S8 stroke grestore} bind def
/D9 {gsave translate 45 rotate 0 0 S9 stroke grestore} bind def
/D10 {gsave translate 45 rotate 0 0 S10 stroke grestore} bind def
/D11 {gsave translate 45 rotate 0 0 S11 stroke grestore} bind def
/D12 {gsave translate 45 rotate 0 0 S12 stroke grestore} bind def
/D13 {gsave translate 45 rotate 0 0 S13 stroke grestore} bind def
/D14 {gsave translate 45 rotate 0 0 S14 stroke grestore} bind def
/D15 {gsave translate 45 rotate 0 0 S15 stroke grestore} bind def
/DiaE {stroke [] 0 setdash vpt add M
  hpt neg vpt neg V hpt vpt neg V
  hpt vpt V hpt neg vpt V closepath stroke} def
/BoxE {stroke [] 0 setdash exch hpt sub exch vpt add M
  0 vpt2 neg V hpt2 0 V 0 vpt2 V
  hpt2 neg 0 V closepath stroke} def
/TriUE {stroke [] 0 setdash vpt 1.12 mul add M
  hpt neg vpt -1.62 mul V
  hpt 2 mul 0 V
  hpt neg vpt 1.62 mul V closepath stroke} def
/TriDE {stroke [] 0 setdash vpt 1.12 mul sub M
  hpt neg vpt 1.62 mul V
  hpt 2 mul 0 V
  hpt neg vpt -1.62 mul V closepath stroke} def
/PentE {stroke [] 0 setdash gsave
  translate 0 hpt M 4 {72 rotate 0 hpt L} repeat
  closepath stroke grestore} def
/CircE {stroke [] 0 setdash 
  hpt 0 360 arc stroke} def
/Opaque {gsave closepath 1 setgray fill grestore 0 setgray closepath} def
/DiaW {stroke [] 0 setdash vpt add M
  hpt neg vpt neg V hpt vpt neg V
  hpt vpt V hpt neg vpt V Opaque stroke} def
/BoxW {stroke [] 0 setdash exch hpt sub exch vpt add M
  0 vpt2 neg V hpt2 0 V 0 vpt2 V
  hpt2 neg 0 V Opaque stroke} def
/TriUW {stroke [] 0 setdash vpt 1.12 mul add M
  hpt neg vpt -1.62 mul V
  hpt 2 mul 0 V
  hpt neg vpt 1.62 mul V Opaque stroke} def
/TriDW {stroke [] 0 setdash vpt 1.12 mul sub M
  hpt neg vpt 1.62 mul V
  hpt 2 mul 0 V
  hpt neg vpt -1.62 mul V Opaque stroke} def
/PentW {stroke [] 0 setdash gsave
  translate 0 hpt M 4 {72 rotate 0 hpt L} repeat
  Opaque stroke grestore} def
/CircW {stroke [] 0 setdash 
  hpt 0 360 arc Opaque stroke} def
/BoxFill {gsave Rec 1 setgray fill grestore} def
/Density {
  /Fillden exch def
  currentrgbcolor
  /ColB exch def /ColG exch def /ColR exch def
  /ColR ColR Fillden mul Fillden sub 1 add def
  /ColG ColG Fillden mul Fillden sub 1 add def
  /ColB ColB Fillden mul Fillden sub 1 add def
  ColR ColG ColB setrgbcolor} def
/BoxColFill {gsave Rec PolyFill} def
/PolyFill {gsave Density fill grestore grestore} def
/h {rlineto rlineto rlineto closepath gsave fill grestore stroke} bind def
%
% PostScript Level 1 Pattern Fill routine for rectangles
% Usage: x y w h s a XX PatternFill
%	x,y = lower left corner of box to be filled
%	w,h = width and height of box
%	  a = angle in degrees between lines and x-axis
%	 XX = 0/1 for no/yes cross-hatch
%
/PatternFill {gsave /PFa [ 9 2 roll ] def
  PFa 0 get PFa 2 get 2 div add PFa 1 get PFa 3 get 2 div add translate
  PFa 2 get -2 div PFa 3 get -2 div PFa 2 get PFa 3 get Rec
  TransparentPatterns {} {gsave 1 setgray fill grestore} ifelse
  clip
  currentlinewidth 0.5 mul setlinewidth
  /PFs PFa 2 get dup mul PFa 3 get dup mul add sqrt def
  0 0 M PFa 5 get rotate PFs -2 div dup translate
  0 1 PFs PFa 4 get div 1 add floor cvi
	{PFa 4 get mul 0 M 0 PFs V} for
  0 PFa 6 get ne {
	0 1 PFs PFa 4 get div 1 add floor cvi
	{PFa 4 get mul 0 2 1 roll M PFs 0 V} for
 } if
  stroke grestore} def
%
/languagelevel where
 {pop languagelevel} {1} ifelse
dup 2 lt
	{/InterpretLevel1 true def
	 /InterpretLevel3 false def}
	{/InterpretLevel1 Level1 def
	 2 gt
	    {/InterpretLevel3 Level3 def}
	    {/InterpretLevel3 false def}
	 ifelse }
 ifelse
%
% PostScript level 2 pattern fill definitions
%
/Level2PatternFill {
/Tile8x8 {/PaintType 2 /PatternType 1 /TilingType 1 /BBox [0 0 8 8] /XStep 8 /YStep 8}
	bind def
/KeepColor {currentrgbcolor [/Pattern /DeviceRGB] setcolorspace} bind def
<< Tile8x8
 /PaintProc {0.5 setlinewidth pop 0 0 M 8 8 L 0 8 M 8 0 L stroke} 
>> matrix makepattern
/Pat1 exch def
<< Tile8x8
 /PaintProc {0.5 setlinewidth pop 0 0 M 8 8 L 0 8 M 8 0 L stroke
	0 4 M 4 8 L 8 4 L 4 0 L 0 4 L stroke}
>> matrix makepattern
/Pat2 exch def
<< Tile8x8
 /PaintProc {0.5 setlinewidth pop 0 0 M 0 8 L
	8 8 L 8 0 L 0 0 L fill}
>> matrix makepattern
/Pat3 exch def
<< Tile8x8
 /PaintProc {0.5 setlinewidth pop -4 8 M 8 -4 L
	0 12 M 12 0 L stroke}
>> matrix makepattern
/Pat4 exch def
<< Tile8x8
 /PaintProc {0.5 setlinewidth pop -4 0 M 8 12 L
	0 -4 M 12 8 L stroke}
>> matrix makepattern
/Pat5 exch def
<< Tile8x8
 /PaintProc {0.5 setlinewidth pop -2 8 M 4 -4 L
	0 12 M 8 -4 L 4 12 M 10 0 L stroke}
>> matrix makepattern
/Pat6 exch def
<< Tile8x8
 /PaintProc {0.5 setlinewidth pop -2 0 M 4 12 L
	0 -4 M 8 12 L 4 -4 M 10 8 L stroke}
>> matrix makepattern
/Pat7 exch def
<< Tile8x8
 /PaintProc {0.5 setlinewidth pop 8 -2 M -4 4 L
	12 0 M -4 8 L 12 4 M 0 10 L stroke}
>> matrix makepattern
/Pat8 exch def
<< Tile8x8
 /PaintProc {0.5 setlinewidth pop 0 -2 M 12 4 L
	-4 0 M 12 8 L -4 4 M 8 10 L stroke}
>> matrix makepattern
/Pat9 exch def
/Pattern1 {PatternBgnd KeepColor Pat1 setpattern} bind def
/Pattern2 {PatternBgnd KeepColor Pat2 setpattern} bind def
/Pattern3 {PatternBgnd KeepColor Pat3 setpattern} bind def
/Pattern4 {PatternBgnd KeepColor Landscape {Pat5} {Pat4} ifelse setpattern} bind def
/Pattern5 {PatternBgnd KeepColor Landscape {Pat4} {Pat5} ifelse setpattern} bind def
/Pattern6 {PatternBgnd KeepColor Landscape {Pat9} {Pat6} ifelse setpattern} bind def
/Pattern7 {PatternBgnd KeepColor Landscape {Pat8} {Pat7} ifelse setpattern} bind def
} def
%
%
%End of PostScript Level 2 code
%
/PatternBgnd {
  TransparentPatterns {} {gsave 1 setgray fill grestore} ifelse
} def
%
% Substitute for Level 2 pattern fill codes with
% grayscale if Level 2 support is not selected.
%
/Level1PatternFill {
/Pattern1 {0.250 Density} bind def
/Pattern2 {0.500 Density} bind def
/Pattern3 {0.750 Density} bind def
/Pattern4 {0.125 Density} bind def
/Pattern5 {0.375 Density} bind def
/Pattern6 {0.625 Density} bind def
/Pattern7 {0.875 Density} bind def
} def
%
% Now test for support of Level 2 code
%
Level1 {Level1PatternFill} {Level2PatternFill} ifelse
%
/Symbol-Oblique /Symbol findfont [1 0 .167 1 0 0] makefont
dup length dict begin {1 index /FID eq {pop pop} {def} ifelse} forall
currentdict end definefont pop
%
/Metrics {ExtendTextBox Gswidth} def
/Lwidth {currentpoint stroke M 0 vshift R Metrics} def
/Rwidth {currentpoint stroke M dup stringwidth pop neg vshift R Metrics} def
/Cwidth {currentpoint stroke M dup stringwidth pop -2 div vshift R Metrics} def
/GLwidth {currentpoint stroke M 0 vshift R {ExtendTextBox} forall} def
/GRwidth {currentpoint stroke M dup Gwidth vshift R {ExtendTextBox} forall} def
/GCwidth {currentpoint stroke M dup Gwidth 2 div vshift R {ExtendTextBox} forall} def
/GLwidth2 {0 Gwidth AddGlyphWidth} def
/GRwidth2 {Gwidth -1 mul 0 AddGlyphWidth} def
/GCwidth2 {Gwidth 2 div dup -1 mul AddGlyphWidth} def
/AddGlyphWidth { dup TBx2 gt {userdict /TBx2 3 -1 roll put} {pop} ifelse
                 dup TBx1 lt {userdict /TBx1 3 -1 roll put} {pop} ifelse } def
/MFshow {
   { dup 5 get 3 ge
     { 5 get 3 eq {gsave} {grestore} ifelse }
     {dup dup 0 get findfont exch 1 get scalefont setfont
     [ currentpoint ] exch dup 2 get 0 exch R dup 5 get 2 ne {dup dup 6
     get exch 4 get {textshow} {Metrics pop 0 R} ifelse }if dup 5 get 0 eq
     {dup 3 get {2 get neg 0 exch R pop} {pop aload pop M} ifelse} {dup 5
     get 1 eq {dup 2 get exch dup 3 get exch 6 get Gswidth pop -2 div
     dup 0 R} {dup 6 get Gswidth pop -2 div 0 R 6 get
     textshow 2 index {aload pop M neg 3 -1 roll neg R pop pop} {pop pop pop
     pop aload pop M} ifelse }ifelse }ifelse }
     ifelse }
   forall} def
/Gswidth {dup type /stringtype eq {stringwidth} {pop (n) stringwidth} ifelse} def
/MFwidth {0 exch { dup 5 get 3 ge { 5 get 3 eq { 0 } { pop } ifelse }
 {dup 3 get{dup dup 0 get findfont exch 1 get scalefont setfont
     6 get Gswidth pop add} {pop} ifelse} ifelse} forall} def
/MLshow { currentpoint stroke M
  0 exch R
  Blacktext {gsave 0 setgray MFshow grestore} {MFshow} ifelse } bind def
/MRshow { currentpoint stroke M
  exch dup MFwidth neg 3 -1 roll R
  Blacktext {gsave 0 setgray MFshow grestore} {MFshow} ifelse } bind def
/MCshow { currentpoint stroke M
  exch dup MFwidth -2 div 3 -1 roll R
  Blacktext {gsave 0 setgray MFshow grestore} {MFshow} ifelse } bind def
/XYsave    { [( ) 1 2 true false 3 ()] } bind def
/XYrestore { [( ) 1 2 true false 4 ()] } bind def
Level1 SuppressPDFMark or 
{} {
/SDict 10 dict def
systemdict /pdfmark known not {
  userdict /pdfmark systemdict /cleartomark get put
} if
SDict begin [
  /Title (amdPrec8192-5121024.eps)
  /Subject (gnuplot plot)
  /Creator (gnuplot 5.5 patchlevel 0)
%  /Producer (gnuplot)
%  /Keywords ()
  /CreationDate (Mon Aug 10 19:30:14 2020)
  /DOCINFO pdfmark
end
} ifelse
%
% Support for boxed text - Ethan A Merritt Sep 2016
%
/InitTextBox { userdict /TBy2 3 -1 roll put userdict /TBx2 3 -1 roll put
           userdict /TBy1 3 -1 roll put userdict /TBx1 3 -1 roll put
	   /Boxing true def } def
/ExtendTextBox { dup type /stringtype eq
    { Boxing { gsave dup false charpath pathbbox
      dup TBy2 gt {userdict /TBy2 3 -1 roll put} {pop} ifelse
      dup TBx2 gt {userdict /TBx2 3 -1 roll put} {pop} ifelse
      dup TBy1 lt {userdict /TBy1 3 -1 roll put} {pop} ifelse
      dup TBx1 lt {userdict /TBx1 3 -1 roll put} {pop} ifelse
      grestore } if }
    {} ifelse} def
/PopTextBox { newpath TBx1 TBxmargin sub TBy1 TBymargin sub M
               TBx1 TBxmargin sub TBy2 TBymargin add L
	       TBx2 TBxmargin add TBy2 TBymargin add L
	       TBx2 TBxmargin add TBy1 TBymargin sub L closepath } def
/DrawTextBox { PopTextBox stroke /Boxing false def} def
/FillTextBox { gsave PopTextBox fill grestore /Boxing false def} def
0 0 0 0 InitTextBox
/TBxmargin 20 def
/TBymargin 20 def
/Boxing false def
/textshow { ExtendTextBox Gshow } def
%
end
%%EndProlog
%%Page: 1 1
gnudict begin
gsave
doclip
50 50 translate
0.050 0.050 scale
0 setgray
newpath
(Helvetica) findfont 220 scalefont setfont
BackgroundColor 0 lt 3 1 roll 0 lt exch 0 lt or or not {BackgroundColor C 1.000 0 0 7200.00 5040.00 BoxColFill} if
1.000 UL
LTb
LCb setrgbcolor
946 1072 M
63 0 V
5794 0 R
-63 0 V
stroke
814 1072 M
[ [(Helvetica) 220.0 0.0 true true 0 (-40)]
] -73.3 MRshow
/Helvetica findfont 220 scalefont setfont
/vshift -73 def
1.000 UL
LTb
LCb setrgbcolor
946 1807 M
63 0 V
5794 0 R
-63 0 V
stroke
814 1807 M
[ [(Helvetica) 220.0 0.0 true true 0 (-20)]
] -73.3 MRshow
/Helvetica findfont 220 scalefont setfont
1.000 UL
LTb
LCb setrgbcolor
946 2542 M
63 0 V
5794 0 R
-63 0 V
stroke
814 2542 M
[ [(Helvetica) 220.0 0.0 true true 0 ( 0)]
] -73.3 MRshow
/Helvetica findfont 220 scalefont setfont
1.000 UL
LTb
LCb setrgbcolor
946 3277 M
63 0 V
5794 0 R
-63 0 V
stroke
814 3277 M
[ [(Helvetica) 220.0 0.0 true true 0 ( 20)]
] -73.3 MRshow
/Helvetica findfont 220 scalefont setfont
1.000 UL
LTb
LCb setrgbcolor
946 4012 M
63 0 V
5794 0 R
-63 0 V
stroke
814 4012 M
[ [(Helvetica) 220.0 0.0 true true 0 ( 40)]
] -73.3 MRshow
/Helvetica findfont 220 scalefont setfont
1.000 UL
LTb
LCb setrgbcolor
1783 704 M
0 63 V
0 3612 R
0 -63 V
stroke
1783 484 M
[ [(Helvetica) 220.0 0.0 true true 0 ( 10)]
] -73.3 MCshow
/Helvetica findfont 220 scalefont setfont
1.000 UL
LTb
LCb setrgbcolor
2712 704 M
0 63 V
0 3612 R
0 -63 V
stroke
2712 484 M
[ [(Helvetica) 220.0 0.0 true true 0 ( 20)]
] -73.3 MCshow
/Helvetica findfont 220 scalefont setfont
1.000 UL
LTb
LCb setrgbcolor
3642 704 M
0 63 V
0 3612 R
0 -63 V
stroke
3642 484 M
[ [(Helvetica) 220.0 0.0 true true 0 ( 30)]
] -73.3 MCshow
/Helvetica findfont 220 scalefont setfont
1.000 UL
LTb
LCb setrgbcolor
4572 704 M
0 63 V
0 3612 R
0 -63 V
stroke
4572 484 M
[ [(Helvetica) 220.0 0.0 true true 0 ( 40)]
] -73.3 MCshow
/Helvetica findfont 220 scalefont setfont
1.000 UL
LTb
LCb setrgbcolor
5501 704 M
0 63 V
0 3612 R
0 -63 V
stroke
5501 484 M
[ [(Helvetica) 220.0 0.0 true true 0 ( 50)]
] -73.3 MCshow
/Helvetica findfont 220 scalefont setfont
1.000 UL
LTb
LCb setrgbcolor
6431 704 M
0 63 V
0 3612 R
0 -63 V
stroke
6431 484 M
[ [(Helvetica) 220.0 0.0 true true 0 ( 60)]
] -73.3 MCshow
/Helvetica findfont 220 scalefont setfont
1.000 UL
LTb
LCb setrgbcolor
1.000 UL
LTB
LCb setrgbcolor
946 4379 N
946 704 L
5857 0 V
0 3675 V
-5857 0 V
Z stroke
1.000 UP
1.000 UL
LTb
LCb setrgbcolor
LCb setrgbcolor
209 2541 M
currentpoint gsave translate -270 rotate 0 0 moveto
[ [(Helvetica) 220.0 0.0 true true 0 (Precision error \(%\))]
] -73.3 MCshow
grestore
/Helvetica findfont 220 scalefont setfont
LTb
LCb setrgbcolor
3874 154 M
[ [(Helvetica) 220.0 0.0 true true 0 (Number of cores)]
] -73.3 MCshow
/Helvetica findfont 220 scalefont setfont
LTb
% Begin plot #1
2.000 UP
4.000 UL
LTb
0.00 0.00 1.00 C
LCb setrgbcolor
3190 4206 M
[ [(Helvetica) 220.0 0.0 true true 0 (Chameleon - 512)]
] -73.3 MRshow
/Helvetica findfont 220 scalefont setfont
2.000 UP
4.000 UL
LTb
0.00 0.00 1.00 C
3322 4206 M
591 0 V
946 2522 M
93 -4 V
93 18 V
93 -4 V
93 8 V
93 -8 V
93 22 V
93 36 V
93 13 V
93 -18 V
93 14 V
93 23 V
93 28 V
93 34 V
93 2 V
93 12 V
92 43 V
93 40 V
93 -16 V
93 41 V
93 9 V
93 19 V
93 61 V
93 17 V
93 -13 V
93 18 V
93 31 V
93 -10 V
93 31 V
93 72 V
93 -38 V
93 49 V
93 -51 V
93 21 V
93 31 V
93 -95 V
93 115 V
93 -44 V
93 -77 V
93 66 V
93 -9 V
93 97 V
93 -115 V
93 -93 V
93 22 V
93 106 V
93 -18 V
93 -122 V
92 81 V
93 -99 V
93 89 V
93 7 V
93 -74 V
93 104 V
93 -33 V
93 56 V
93 -33 V
93 11 V
93 -52 V
93 89 V
93 -80 V
93 -9 V
93 -12 V
93 12 V
946 2522 Pls
1039 2518 Pls
1132 2536 Pls
1225 2532 Pls
1318 2540 Pls
1411 2532 Pls
1504 2554 Pls
1597 2590 Pls
1690 2603 Pls
1783 2585 Pls
1876 2599 Pls
1969 2622 Pls
2062 2650 Pls
2155 2684 Pls
2248 2686 Pls
2341 2698 Pls
2433 2741 Pls
2526 2781 Pls
2619 2765 Pls
2712 2806 Pls
2805 2815 Pls
2898 2834 Pls
2991 2895 Pls
3084 2912 Pls
3177 2899 Pls
3270 2917 Pls
3363 2948 Pls
3456 2938 Pls
3549 2969 Pls
3642 3041 Pls
3735 3003 Pls
3828 3052 Pls
3921 3001 Pls
4014 3022 Pls
4107 3053 Pls
4200 2958 Pls
4293 3073 Pls
4386 3029 Pls
4479 2952 Pls
4572 3018 Pls
4665 3009 Pls
4758 3106 Pls
4851 2991 Pls
4944 2898 Pls
5037 2920 Pls
5130 3026 Pls
5223 3008 Pls
5316 2886 Pls
5408 2967 Pls
5501 2868 Pls
5594 2957 Pls
5687 2964 Pls
5780 2890 Pls
5873 2994 Pls
5966 2961 Pls
6059 3017 Pls
6152 2984 Pls
6245 2995 Pls
6338 2943 Pls
6431 3032 Pls
6524 2952 Pls
6617 2943 Pls
6710 2931 Pls
6803 2943 Pls
3617 4206 Pls
% End plot #1
% Begin plot #2
2.000 UP
4.000 UL
LTb
1.00 0.65 0.00 C
LCb setrgbcolor
3190 3986 M
[ [(Helvetica) 220.0 0.0 true true 0 (Chameleon - 1024)]
] -73.3 MRshow
/Helvetica findfont 220 scalefont setfont
2.000 UP
4.000 UL
LTb
1.00 0.65 0.00 C
3322 3986 M
591 0 V
946 2531 M
93 42 V
93 -29 V
93 8 V
93 7 V
93 -71 V
93 105 V
93 -54 V
93 85 V
93 -126 V
93 81 V
93 13 V
93 -56 V
93 -48 V
93 1 V
93 -18 V
92 95 V
93 9 V
93 133 V
93 -50 V
93 -105 V
93 70 V
93 69 V
93 157 V
93 -142 V
93 19 V
93 2 V
93 1 V
93 1 V
93 24 V
93 1 V
93 5 V
93 -2 V
93 18 V
93 -7 V
93 -5 V
93 2 V
93 -1 V
93 -7 V
93 6 V
93 -1 V
93 8 V
93 -7 V
93 0 V
93 9 V
93 -4 V
93 4 V
93 -2 V
92 -4 V
93 13 V
93 -7 V
93 1 V
93 -2 V
93 0 V
93 1 V
93 10 V
93 -19 V
93 8 V
93 4 V
93 -6 V
93 -1 V
93 3 V
93 -10 V
93 0 V
946 2531 Crs
1039 2573 Crs
1132 2544 Crs
1225 2552 Crs
1318 2559 Crs
1411 2488 Crs
1504 2593 Crs
1597 2539 Crs
1690 2624 Crs
1783 2498 Crs
1876 2579 Crs
1969 2592 Crs
2062 2536 Crs
2155 2488 Crs
2248 2489 Crs
2341 2471 Crs
2433 2566 Crs
2526 2575 Crs
2619 2708 Crs
2712 2658 Crs
2805 2553 Crs
2898 2623 Crs
2991 2692 Crs
3084 2849 Crs
3177 2707 Crs
3270 2726 Crs
3363 2728 Crs
3456 2729 Crs
3549 2730 Crs
3642 2754 Crs
3735 2755 Crs
3828 2760 Crs
3921 2758 Crs
4014 2776 Crs
4107 2769 Crs
4200 2764 Crs
4293 2766 Crs
4386 2765 Crs
4479 2758 Crs
4572 2764 Crs
4665 2763 Crs
4758 2771 Crs
4851 2764 Crs
4944 2764 Crs
5037 2773 Crs
5130 2769 Crs
5223 2773 Crs
5316 2771 Crs
5408 2767 Crs
5501 2780 Crs
5594 2773 Crs
5687 2774 Crs
5780 2772 Crs
5873 2772 Crs
5966 2773 Crs
6059 2783 Crs
6152 2764 Crs
6245 2772 Crs
6338 2776 Crs
6431 2770 Crs
6524 2769 Crs
6617 2772 Crs
6710 2762 Crs
6803 2762 Crs
3617 3986 Crs
% End plot #2
% Begin plot #3
2.000 UP
4.000 UL
LTb
0.00 1.00 0.00 C
LCb setrgbcolor
3190 3766 M
[ [(Helvetica) 220.0 0.0 true true 0 (Kastors - 512)]
] -73.3 MRshow
/Helvetica findfont 220 scalefont setfont
2.000 UP
4.000 UL
LTb
0.00 1.00 0.00 C
3322 3766 M
591 0 V
946 2501 M
93 39 V
93 -12 V
93 99 V
93 -51 V
93 69 V
93 -68 V
93 4 V
93 17 V
93 -93 V
93 25 V
93 148 V
93 -70 V
93 5 V
93 3 V
93 111 V
92 -11 V
93 -81 V
93 -115 V
93 12 V
93 63 V
93 -6 V
93 -128 V
93 398 V
93 -24 V
93 -242 V
93 83 V
93 52 V
93 61 V
93 -86 V
93 369 V
93 -276 V
93 -86 V
93 17 V
93 0 V
93 -36 V
93 208 V
93 -108 V
93 109 V
93 105 V
93 -155 V
93 21 V
93 -12 V
93 -58 V
93 264 V
93 113 V
93 -402 V
93 49 V
92 56 V
93 -4 V
93 54 V
93 -133 V
93 147 V
93 59 V
93 -54 V
93 145 V
93 -31 V
93 -77 V
93 31 V
93 -23 V
93 44 V
93 -19 V
93 -44 V
93 124 V
946 2501 Star
1039 2540 Star
1132 2528 Star
1225 2627 Star
1318 2576 Star
1411 2645 Star
1504 2577 Star
1597 2581 Star
1690 2598 Star
1783 2505 Star
1876 2530 Star
1969 2678 Star
2062 2608 Star
2155 2613 Star
2248 2616 Star
2341 2727 Star
2433 2716 Star
2526 2635 Star
2619 2520 Star
2712 2532 Star
2805 2595 Star
2898 2589 Star
2991 2461 Star
3084 2859 Star
3177 2835 Star
3270 2593 Star
3363 2676 Star
3456 2728 Star
3549 2789 Star
3642 2703 Star
3735 3072 Star
3828 2796 Star
3921 2710 Star
4014 2727 Star
4107 2727 Star
4200 2691 Star
4293 2899 Star
4386 2791 Star
4479 2900 Star
4572 3005 Star
4665 2850 Star
4758 2871 Star
4851 2859 Star
4944 2801 Star
5037 3065 Star
5130 3178 Star
5223 2776 Star
5316 2825 Star
5408 2881 Star
5501 2877 Star
5594 2931 Star
5687 2798 Star
5780 2945 Star
5873 3004 Star
5966 2950 Star
6059 3095 Star
6152 3064 Star
6245 2987 Star
6338 3018 Star
6431 2995 Star
6524 3039 Star
6617 3020 Star
6710 2976 Star
6803 3100 Star
3617 3766 Star
% End plot #3
% Begin plot #4
2.000 UP
4.000 UL
LTb
1.00 0.00 0.00 C
LCb setrgbcolor
3190 3546 M
[ [(Helvetica) 220.0 0.0 true true 0 (Kastors - 1024)]
] -73.3 MRshow
/Helvetica findfont 220 scalefont setfont
2.000 UP
4.000 UL
LTb
1.00 0.00 0.00 C
3322 3546 M
591 0 V
946 2513 M
93 14 V
93 103 V
93 22 V
93 196 V
93 -331 V
93 267 V
93 -209 V
93 21 V
93 70 V
93 82 V
93 -57 V
93 -90 V
93 43 V
93 -31 V
93 124 V
92 123 V
93 82 V
93 -363 V
93 19 V
93 22 V
93 -34 V
93 185 V
93 -1 V
93 -5 V
93 57 V
93 -33 V
93 -211 V
93 39 V
93 -12 V
93 54 V
93 -5 V
93 -24 V
93 -18 V
93 61 V
93 34 V
93 -33 V
93 -23 V
93 43 V
93 58 V
93 -111 V
93 82 V
93 -48 V
93 34 V
93 -42 V
93 40 V
93 -63 V
93 36 V
92 24 V
93 25 V
93 -46 V
93 28 V
93 -24 V
93 46 V
93 -31 V
93 -4 V
93 -5 V
93 82 V
93 140 V
93 -230 V
93 63 V
93 349 V
93 -338 V
93 -25 V
946 2513 Box
1039 2527 Box
1132 2630 Box
1225 2652 Box
1318 2848 Box
1411 2517 Box
1504 2784 Box
1597 2575 Box
1690 2596 Box
1783 2666 Box
1876 2748 Box
1969 2691 Box
2062 2601 Box
2155 2644 Box
2248 2613 Box
2341 2737 Box
2433 2860 Box
2526 2942 Box
2619 2579 Box
2712 2598 Box
2805 2620 Box
2898 2586 Box
2991 2771 Box
3084 2770 Box
3177 2765 Box
3270 2822 Box
3363 2789 Box
3456 2578 Box
3549 2617 Box
3642 2605 Box
3735 2659 Box
3828 2654 Box
3921 2630 Box
4014 2612 Box
4107 2673 Box
4200 2707 Box
4293 2674 Box
4386 2651 Box
4479 2694 Box
4572 2752 Box
4665 2641 Box
4758 2723 Box
4851 2675 Box
4944 2709 Box
5037 2667 Box
5130 2707 Box
5223 2644 Box
5316 2680 Box
5408 2704 Box
5501 2729 Box
5594 2683 Box
5687 2711 Box
5780 2687 Box
5873 2733 Box
5966 2702 Box
6059 2698 Box
6152 2693 Box
6245 2775 Box
6338 2915 Box
6431 2685 Box
6524 2748 Box
6617 3097 Box
6710 2759 Box
6803 2734 Box
3617 3546 Box
% End plot #4
2.000 UL
LTb
LCb setrgbcolor
1.000 UL
LTB
LCb setrgbcolor
946 4379 N
946 704 L
5857 0 V
0 3675 V
-5857 0 V
Z stroke
1.000 UP
1.000 UL
LTb
LCb setrgbcolor
LCb setrgbcolor
3874 4709 M
[ [(Helvetica) 220.0 0.0 true true 0 (AMD EPYC 7452 - Matrix size = 8192)]
] -73.3 MCshow
/Helvetica findfont 220 scalefont setfont
LTb
stroke
grestore
end
showpage
%%Trailer
%%DocumentFonts: Helvetica
